2020-11-28T20:04:46+00:00 fedora32.localdomain#01 I: Start test leap tests:0:year not divisible by 4 in common year.
2020-11-28T20:04:46+00:00 fedora32.localdomain#01 I: Test leap tests:0:year not divisible by 4 in common year is successful.
2020-11-28T20:04:46+00:00 fedora32.localdomain#01 I: End test leap tests:0:year not divisible by 4 in common year.
2020-11-28T20:04:46+00:00 fedora32.localdomain#01 I: Start test leap tests:2:year divisible by 4, not divisible by 100 in leap year.
2020-11-28T20:04:46+00:00 fedora32.localdomain#01 I: Test leap tests:2:year divisible by 4, not divisible by 100 in leap year is successful.
2020-11-28T20:04:46+00:00 fedora32.localdomain#01 I: End test leap tests:2:year divisible by 4, not divisible by 100 in leap year.
2020-11-28T20:04:46+00:00 fedora32.localdomain#01 I: Start test leap tests:3:year divisible by 100, not divisible by 400 in common year.
2020-11-28T20:04:46+00:00 fedora32.localdomain#01 I: Test leap tests:3:year divisible by 100, not divisible by 400 in common year is successful.
2020-11-28T20:04:46+00:00 fedora32.localdomain#01 I: End test leap tests:3:year divisible by 100, not divisible by 400 in common year.
2020-11-28T20:04:46+00:00 fedora32.localdomain#01 I: Start test leap tests:5:year divisible by 200, not divisible by 400 in common year.
2020-11-28T20:04:46+00:00 fedora32.localdomain#01 I: Test leap tests:5:year divisible by 200, not divisible by 400 in common year is successful.
2020-11-28T20:04:46+00:00 fedora32.localdomain#01 I: End test leap tests:5:year divisible by 200, not divisible by 400 in common year.
